waveform.vcd
$date
  ...
$end
$version
  hardcaml-cyclesim
$end
$comment
  Hardware design in ocaml
$end
$timescale 1ns $end
$scope module inputs $end
$var wire 1 ! -clock $end
$var wire 1 " -reset $end
$var wire 1 $ clk $end
$var wire 1 # clr $end
$var wire 1 % rx $end
$upscope $end
$scope module outputs $end
$var wire 16 ( count $end
$var wire 8 ' curSum $end
$var wire 8 & dinOut $end
$var wire 1 ) valid $end
$upscope $end
$scope module various $end
$upscope $end
$enddefinitions $end
$dumpvars
x!
x"
x$
x#
x%
bxxxxxxxxxxxxxxxx (
bxxxxxxxx '
bxxxxxxxx &
x)
$end
#0
1!
0"
1#
0$
0%
b00000000 &
b00000000 '
b0000000000000000 (
0)
#5
0!
#10
1!
0"
0#
#15
0!
#20
1!
0"
1%
#25
0!
#30
1!
0"
0%
#35
0!
#40
1!
0"
#45
0!
#50
1!
0"
#55
0!
#60
1!
0"
#65
0!
#70
1!
0"
#75
0!
#80
1!
0"
#85
0!
#90
1!
0"
#95
0!
#100
1!
0"
#105
0!
#110
1!
0"
#115
0!
#120
1!
0"
#125
0!
#130
1!
0"
#135
0!
#140
1!
0"
#145
0!
#150
1!
0"
1%
#155
0!
#160
1!
0"
b10000000 &
#165
0!
#170
1!
0"
#175
0!
#180
1!
0"
#185
0!
#190
1!
0"
#195
0!
#200
1!
0"
b11000000 &
#205
0!
#210
1!
0"
#215
0!
#220
1!
0"
#225
0!
#230
1!
0"
0%
#235
0!
#240
1!
0"
b01100000 &
#245
0!
#250
1!
0"
#255
0!
#260
1!
0"
#265
0!
#270
1!
0"
#275
0!
#280
1!
0"
b00110000 &
#285
0!
#290
1!
0"
#295
0!
#300
1!
0"
#305
0!
#310
1!
0"
1%
#315
0!
#320
1!
0"
b10011000 &
#325
0!
#330
1!
0"
#335
0!
#340
1!
0"
#345
0!
#350
1!
0"
0%
#355
0!
#360
1!
0"
b01001100 &
1)
#365
0!
#370
1!
0"
#375
0!
#380
1!
0"
b00110010 '
#385
0!
#390
1!
0"
1%
b0000000001001100 (
#395
0!
#400
1!
0"
b0000000001001101 (
0)
#405
0!
#410
1!
0"
#415
0!
#420
1!
0"
#425
0!
#430
1!
0"
#435
0!
#440
1!
0"
#445
0!
#450
1!
0"
#455
0!
#460
1!
0"
#465
0!
#470
1!
0"
#475
0!
#480
1!
0"
#485
0!
#490
1!
0"
#495
0!
#500
1!
0"
#505
0!
#510
1!
0"
#515
0!
#520
1!
0"
#525
0!
#530
1!
0"
0%
#535
0!
#540
1!
0"
#545
0!
#550
1!
0"
#555
0!
#560
1!
0"
#565
0!
#570
1!
0"
#575
0!
#580
1!
0"
#585
0!
#590
1!
0"
#595
0!
#600
1!
0"
#605
0!
#610
1!
0"
b00100110 &
#615
0!
#620
1!
0"
#625
0!
#630
1!
0"
#635
0!
#640
1!
0"
#645
0!
#650
1!
0"
1%
b00010011 &
#655
0!
#660
1!
0"
#665
0!
#670
1!
0"
#675
0!
#680
1!
0"
#685
0!
#690
1!
0"
b10001001 &
#695
0!
#700
1!
0"
#705
0!
#710
1!
0"
#715
0!
#720
1!
0"
#725
0!
#730
1!
0"
0%
b11000100 &
#735
0!
#740
1!
0"
#745
0!
#750
1!
0"
#755
0!
#760
1!
0"
#765
0!
#770
1!
0"
1%
b01100010 &
#775
0!
#780
1!
0"
#785
0!
#790
1!
0"
#795
0!
#800
1!
0"
#805
0!
#810
1!
0"
0%
b10110001 &
#815
0!
#820
1!
0"
#825
0!
#830
1!
0"
#835
0!
#840
1!
0"
#845
0!
#850
1!
0"
b01011000 &
#855
0!
#860
1!
0"
#865
0!
#870
1!
0"
#875
0!
#880
1!
0"
#885
0!
#890
1!
0"
1%
b00101100 &
1)
#895
0!
#900
1!
0"
b01001010 '
#905
0!
#910
1!
0"
b0000000001111001 (
#915
0!
#920
1!
0"
#925
0!
#930
1!
0"
0)
#935
0!
#940
1!
0"
#945
0!
#950
1!
0"
#955
0!
#960
1!
0"
#965
0!
#970
1!
0"
#975
0!
#980
1!
0"
#985
0!
#990
1!
0"
#995
0!
#1000
1!
0"
#1005
0!
#1010
1!
0"
#1015
0!
#1020
1!
0"
#1025
0!
#1030
1!
0"
0%
#1035
0!
#1040
1!
0"
#1045
0!
#1050
1!
0"
#1055
0!
#1060
1!
0"
#1065
0!
#1070
1!
0"
#1075
0!
#1080
1!
0"
#1085
0!
#1090
1!
0"
#1095
0!
#1100
1!
0"
#1105
0!
#1110
1!
0"
b00010110 &
#1115
0!
#1120
1!
0"
#1125
0!
#1130
1!
0"
#1135
0!
#1140
1!
0"
#1145
0!
#1150
1!
0"
b00001011 &
#1155
0!
#1160
1!
0"
#1165
0!
#1170
1!
0"
#1175
0!
#1180
1!
0"
#1185
0!
#1190
1!
0"
b00000101 &
#1195
0!
#1200
1!
0"
#1205
0!
#1210
1!
0"
#1215
0!
#1220
1!
0"
#1225
0!
#1230
1!
0"
b00000010 &
#1235
0!
#1240
1!
0"
#1245
0!
#1250
1!
0"
#1255
0!
#1260
1!
0"
#1265
0!
#1270
1!
0"
b00000001 &
#1275
0!
#1280
1!
0"
#1285
0!
#1290
1!
0"
#1295
0!
#1300
1!
0"
#1305
0!
#1310
1!
0"
b00000000 &
#1315
0!
#1320
1!
0"
#1325
0!
#1330
1!
0"
#1335
0!
#1340
1!
0"
#1345
0!
#1350
1!
0"
#1355
0!
#1360
1!
0"
#1365
0!
#1370
1!
0"
#1375
0!
#1380
1!
0"
#1385
0!
#1390
1!
0"
1%
1)
#1395
0!
#1400
1!
0"
#1405
0!
#1410
1!
0"
#1415
0!
#1420
1!
0"
#1425
0!
#1430
1!
0"
0)
#1435
0!
#1440
1!
0"
#1445
0!
#1450
1!
0"
#1455
0!
#1460
1!
0"
#1465
0!
#1470
1!
0"
#1475
0!
#1480
1!
0"
#1485
0!
#1490
1!
0"
#1495
0!
#1500
1!
0"
#1505
0!
#1510
1!
0"
#1515
0!
#1520
1!
0"
#1525
0!
#1530
1!
0"
#1535
0!
#1540
1!
0"
#1545
0!
#1550
1!
0"
#1555
0!
